{
   "Channels" : [
      {
         "Coupling" : 1,
         "Samples" : [
            0.229980,
            0.220215,
            0.209961,
            0.200195,
            0.189941,
            0.189941,
            0.180176,
            0.169922,
            0.169922,
            0.169922,
            0.169922,
            0.169922,
            0.169922,
            0.180176,
            0.189941,
            0.200195,
            0.209961,
            0.229980,
            0.250,
            0.270020,
            0.290039,
            0.310059,
            0.339844,
            0.359863,
            0.390137,
            0.419922,
            0.450195,
            0.479980,
            0.50,
            0.529785,
            0.560059,
            0.580078,
            0.600098,
            0.620117,
            0.640137,
            0.660156,
            0.680176,
            0.689941,
            0.700195,
            0.709961,
            0.709961,
            0.720215,
            0.709961,
            0.709961,
            0.709961,
            0.700195,
            0.689941,
            0.680176,
            0.669922,
            0.660156,
            0.640137,
            0.629883,
            0.609863,
            0.600098,
            0.580078,
            0.569824,
            0.549805,
            0.540039,
            0.520020,
            0.509766,
            0.50,
            0.50,
            0.490234,
            0.490234,
            0.479980,
            0.490234,
            0.490234,
            0.490234,
            0.490234,
            0.50,
            0.509766,
            0.529785,
            0.540039,
            0.549805,
            0.569824,
            0.580078,
            0.600098,
            0.609863,
            0.629883,
            0.640137,
            0.649902,
            0.669922,
            0.680176,
            0.689941,
            0.700195,
            0.700195,
            0.709961,
            0.709961,
            0.709961,
            0.700195,
            0.700195,
            0.689941,
            0.680176,
            0.669922,
            0.649902,
            0.629883,
            0.609863,
            0.589844,
            0.580078,
            0.549805,
            0.520020,
            0.50,
            0.479980,
            0.450195,
            0.430176,
            0.399902,
            0.379883,
            0.350098,
            0.339844,
            0.310059,
            0.290039,
            0.279785,
            0.259766,
            0.250,
            0.240234,
            0.229980,
            0.220215,
            0.220215,
            0.220215,
            0.209961,
            0.209961,
            0.220215,
            0.220215,
            0.229980,
            0.229980,
            0.240234,
            0.250,
            0.259766,
            0.259766,
            0.270020,
            0.279785,
            0.279785,
            0.290039,
            0.290039,
            0.290039,
            0.290039,
            0.290039,
            0.290039,
            0.279785,
            0.270020,
            0.259766,
            0.250,
            0.240234,
            0.220215,
            0.200195,
            0.180176,
            0.160156,
            0.129883,
            0.109863,
            0.0800781,
            0.0498047,
            0.0297852,
            0.0,
            -0.0292969,
            -0.0493164,
            -0.0795898,
            -0.109375,
            -0.129395,
            -0.149414,
            -0.169434,
            -0.189453,
            -0.209473,
            -0.219727,
            -0.229492,
            -0.239746,
            -0.249512,
            -0.249512,
            -0.249512,
            -0.249512,
            -0.249512,
            -0.249512,
            -0.239746,
            -0.229492,
            -0.209473,
            -0.199707,
            -0.189453,
            -0.169434,
            -0.159668,
            -0.139648,
            -0.129395,
            -0.109375,
            -0.0996094,
            -0.0795898,
            -0.0693359,
            -0.0595703,
            -0.0493164,
            -0.0395508,
            -0.0395508,
            -0.0292969,
            -0.0292969,
            -0.0292969,
            -0.0292969,
            -0.0395508,
            -0.0395508,
            -0.0493164,
            -0.0595703,
            -0.0693359,
            -0.0795898,
            -0.0893555,
            -0.109375,
            -0.119629,
            -0.129395,
            -0.149414,
            -0.159668,
            -0.169434,
            -0.189453,
            -0.199707,
            -0.219727,
            -0.229492,
            -0.229492,
            -0.239746,
            -0.239746,
            -0.239746,
            -0.249512,
            -0.239746,
            -0.229492,
            -0.229492,
            -0.219727,
            -0.209473,
            -0.189453,
            -0.169434,
            -0.149414,
            -0.139648,
            -0.119629,
            -0.0893555,
            -0.0693359,
            -0.0395508,
            -0.0195312,
            0.00976562,
            0.0297852,
            0.0600586,
            0.0800781,
            0.100098,
            0.129883,
            0.149902,
            0.160156,
            0.189941,
            0.200195,
            0.220215,
            0.229980,
            0.240234,
            0.240234,
            0.250,
            0.250,
            0.250,
            0.259766,
            0.250,
            0.250,
            0.240234,
            0.229980,
            0.229980,
            0.220215,
            0.209961,
            0.200195,
            0.189941,
            0.189941,
            0.180176,
            0.169922,
            0.169922,
            0.169922,
            0.169922,
            0.169922,
            0.169922,
            0.180176,
            0.189941,
            0.200195,
            0.209961,
            0.229980,
            0.240234,
            0.259766,
            0.279785,
            0.310059,
            0.330078,
            0.359863,
            0.379883,
            0.410156,
            0.439941,
            0.470215,
            0.490234,
            0.520020,
            0.549805,
            0.569824,
            0.600098,
            0.609863,
            0.629883,
            0.649902,
            0.669922,
            0.680176,
            0.689941,
            0.709961,
            0.709961,
            0.709961,
            0.720215,
            0.709961,
            0.709961,
            0.709961,
            0.700195,
            0.689941,
            0.680176,
            0.669922,
            0.649902,
            0.640137,
            0.629883,
            0.609863,
            0.589844,
            0.580078,
            0.569824,
            0.549805,
            0.540039,
            0.529785,
            0.520020,
            0.509766,
            0.50,
            0.490234,
            0.490234,
            0.490234,
            0.490234,
            0.490234,
            0.50,
            0.509766,
            0.509766,
            0.529785,
            0.540039,
            0.549805,
            0.560059,
            0.580078,
            0.589844,
            0.609863,
            0.620117,
            0.640137,
            0.649902,
            0.669922,
            0.680176,
            0.689941,
            0.689941,
            0.700195,
            0.700195,
            0.709961,
            0.709961,
            0.700195,
            0.700195,
            0.689941,
            0.680176,
            0.669922,
            0.660156,
            0.640137,
            0.620117,
            0.600098,
            0.580078,
            0.560059,
            0.529785,
            0.509766,
            0.479980,
            0.459961,
            0.430176,
            0.410156,
            0.379883,
            0.359863,
            0.339844,
            0.319824,
            0.299805,
            0.279785,
            0.259766,
            0.250,
            0.240234,
            0.229980,
            0.220215,
            0.209961,
            0.209961,
            0.209961,
            0.209961,
            0.209961,
            0.220215,
            0.220215,
            0.229980,
            0.240234,
            0.240234,
            0.250,
            0.259766,
            0.270020,
            0.270020,
            0.279785,
            0.290039,
            0.290039,
            0.290039,
            0.299805,
            0.290039,
            0.290039,
            0.290039,
            0.279785,
            0.270020,
            0.259766,
            0.240234,
            0.229980,
            0.209961,
            0.189941,
            0.169922,
            0.140137,
            0.109863,
            0.0898438,
            0.0600586,
            0.0297852,
            0.00976562,
            -0.0195312,
            -0.0493164,
            -0.0693359,
            -0.0996094,
            -0.119629,
            -0.149414,
            -0.169434,
            -0.189453,
            -0.199707,
            -0.219727,
            -0.229492,
            -0.239746,
            -0.249512,
            -0.249512,
            -0.249512,
            -0.249512,
            -0.249512,
            -0.239746,
            -0.239746,
            -0.229492,
            -0.219727,
            -0.209473,
            -0.189453,
            -0.179688,
            -0.169434,
            -0.149414,
            -0.129395,
            -0.119629,
            -0.109375,
            -0.0893555,
            -0.0795898,
            -0.0693359,
            -0.0595703,
            -0.0493164,
            -0.0493164,
            -0.0395508,
            -0.0395508,
            -0.0395508,
            -0.0395508,
            -0.0493164,
            -0.0493164,
            -0.0595703,
            -0.0693359,
            -0.0693359,
            -0.0795898,
            -0.0996094,
            -0.109375,
            -0.119629,
            -0.129395,
            -0.139648,
            -0.159668,
            -0.169434,
            -0.189453,
            -0.199707,
            -0.209473,
            -0.219727,
            -0.229492,
            -0.239746,
            -0.239746,
            -0.249512,
            -0.239746,
            -0.239746,
            -0.239746,
            -0.229492,
            -0.219727,
            -0.209473,
            -0.199707,
            -0.179688,
            -0.159668,
            -0.139648,
            -0.119629,
            -0.0996094,
            -0.0795898,
            -0.0493164,
            -0.0292969,
            0.0,
            0.0200195,
            0.0498047,
            0.0698242,
            0.0898438,
            0.120117,
            0.140137,
            0.160156,
            0.169922,
            0.189941,
            0.209961,
            0.220215,
            0.229980,
            0.240234,
            0.250,
            0.250,
            0.250,
            0.250,
            0.250,
            0.250,
            0.240234,
            0.240234,
            0.229980,
            0.220215,
            0.220215,
            0.209961,
            0.200195,
            0.189941,
            0.180176,
            0.180176,
            0.169922,
            0.169922,
            0.169922,
            0.169922,
            0.169922,
            0.180176,
            0.180176,
            0.189941,
            0.209961,
            0.220215,
            0.229980,
            0.250,
            0.270020,
            0.290039,
            0.319824,
            0.350098,
            0.370117,
            0.399902,
            0.430176,
            0.459961,
            0.479980,
            0.509766,
            0.529785,
            0.560059,
            0.589844,
            0.609863,
            0.629883,
            0.649902,
            0.660156,
            0.680176,
            0.689941,
            0.700195,
            0.709961,
            0.709961,
            0.720215,
            0.709961,
            0.709961,
            0.709961,
            0.700195,
            0.689941,
            0.680176,
            0.669922,
            0.660156,
            0.640137,
            0.629883,
            0.609863,
            0.600098,
            0.580078,
            0.569824,
            0.560059,
            0.540039,
            0.529785,
            0.509766,
            0.50,
            0.50,
            0.490234,
            0.490234,
            0.490234,
            0.479980,
            0.490234,
            0.490234,
            0.50,
            0.50,
            0.509766,
            0.529785,
            0.540039,
            0.549805,
            0.569824,
            0.580078,
            0.600098,
            0.620117,
            0.629883,
            0.640137,
            0.660156,
            0.669922,
            0.680176,
            0.689941,
            0.700195,
            0.700195,
            0.709961,
            0.709961,
            0.709961,
            0.700195,
            0.700195,
            0.689941,
            0.680176,
            0.660156,
            0.649902,
            0.629883,
            0.609863,
            0.589844,
            0.569824,
            0.540039,
            0.520020,
            0.490234,
            0.470215,
            0.439941,
            0.419922,
            0.390137,
            0.370117,
            0.350098,
            0.330078,
            0.310059,
            0.290039,
            0.270020,
            0.259766,
            0.250,
            0.229980,
            0.229980,
            0.220215,
            0.220215,
            0.209961,
            0.220215,
            0.220215,
            0.220215,
            0.220215,
            0.229980,
            0.240234,
            0.240234,
            0.250,
            0.259766,
            0.259766,
            0.270020,
            0.279785,
            0.279785,
            0.290039,
            0.290039,
            0.290039,
            0.290039,
            0.290039,
            0.290039,
            0.279785,
            0.270020,
            0.259766,
            0.240234,
            0.229980,
            0.209961,
            0.189941,
            0.169922,
            0.160156,
            0.120117,
            0.100098,
            0.0698242,
            0.0400391,
            0.00976562,
            -0.00927734,
            -0.0395508,
            -0.0693359,
            -0.0893555,
            -0.109375,
            -0.139648,
            -0.159668,
            -0.179688,
            -0.199707,
            -0.209473,
            -0.229492,
            -0.239746,
            -0.239746,
            -0.249512,
            -0.249512,
            -0.249512,
            -0.249512,
            -0.249512,
            -0.239746,
            -0.229492,
            -0.219727,
            -0.209473,
            -0.199707,
            -0.179688,
            -0.169434,
            -0.149414,
            -0.139648,
            -0.119629,
            -0.109375,
            -0.0996094,
            -0.0795898,
            -0.0693359,
            -0.0595703,
            -0.0493164,
            -0.0395508,
            -0.0395508,
            -0.0395508,
            -0.0395508,
            -0.0395508,
            -0.0395508,
            -0.0395508,
            -0.0493164,
            -0.0493164,
            -0.0693359,
            -0.0795898,
            -0.0795898,
            -0.0996094,
            -0.109375,
            -0.119629,
            -0.139648,
            -0.149414,
            -0.159668,
            -0.179688,
            -0.189453,
            -0.199707,
            -0.209473,
            -0.219727,
            -0.229492,
            -0.239746,
            -0.239746,
            -0.249512,
            -0.239746,
            -0.239746,
            -0.239746,
            -0.229492,
            -0.219727,
            -0.209473,
            -0.189453,
            -0.169434,
            -0.149414,
            -0.129395,
            -0.109375,
            -0.0893555,
            -0.0693359,
            -0.0395508,
            -0.00927734,
            0.00976562,
            0.0400391,
            0.0600586,
            0.0898438,
            0.109863,
            0.129883,
            0.149902,
            0.160156,
            0.189941,
            0.209961,
            0.220215,
            0.229980,
            0.240234,
            0.250,
            0.250,
            0.250,
            0.250,
            0.250,
            0.250,
            0.240234,
            0.240234,
            0.229980,
            0.220215,
            0.220215,
            0.209961,
            0.200195,
            0.189941,
            0.189941,
            0.180176,
            0.180176,
            0.169922,
            0.169922,
            0.169922,
            0.169922,
            0.180176,
            0.189941,
            0.189941,
            0.209961,
            0.220215,
            0.229980,
            0.250,
            0.270020,
            0.290039,
            0.319824,
            0.339844,
            0.370117,
            0.390137,
            0.419922,
            0.450195,
            0.470215,
            0.50,
            0.529785,
            0.549805,
            0.580078,
            0.600098,
            0.620117,
            0.640137,
            0.660156,
            0.669922,
            0.680176,
            0.700195,
            0.700195,
            0.709961,
            0.709961,
            0.709961,
            0.709961,
            0.700195,
            0.700195,
            0.689941,
            0.680176,
            0.669922,
            0.649902,
            0.640137,
            0.629883,
            0.609863,
            0.600098,
            0.580078,
            0.569824,
            0.549805,
            0.540039,
            0.529785,
            0.520020,
            0.50,
            0.50,
            0.490234,
            0.490234,
            0.490234,
            0.490234,
            0.490234,
            0.490234,
            0.50,
            0.509766,
            0.520020,
            0.529785,
            0.540039,
            0.549805,
            0.569824,
            0.580078,
            0.600098,
            0.609863,
            0.629883,
            0.640137,
            0.649902,
            0.669922,
            0.680176,
            0.689941,
            0.700195,
            0.700195,
            0.709961,
            0.709961,
            0.709961,
            0.709961,
            0.700195,
            0.689941,
            0.680176,
            0.669922,
            0.660156,
            0.640137,
            0.620117,
            0.600098,
            0.580078,
            0.560059,
            0.529785,
            0.509766,
            0.479980,
            0.459961,
            0.430176,
            0.410156,
            0.379883,
            0.359863,
            0.339844,
            0.319824,
            0.299805,
            0.279785,
            0.270020,
            0.250,
            0.240234,
            0.229980,
            0.220215,
            0.220215,
            0.220215,
            0.209961,
            0.209961,
            0.220215,
            0.220215,
            0.229980,
            0.229980,
            0.240234,
            0.250,
            0.259766,
            0.259766,
            0.270020,
            0.279785,
            0.290039,
            0.290039,
            0.299805,
            0.299805,
            0.299805,
            0.290039,
            0.290039,
            0.279785,
            0.270020,
            0.259766,
            0.250,
            0.229980,
            0.220215,
            0.200195,
            0.180176,
            0.160156,
            0.120117,
            0.100098,
            0.0698242,
            0.0400391,
            0.00976562,
            -0.00927734,
            -0.0395508,
            -0.0693359,
            -0.0893555,
            -0.119629,
            -0.139648,
            -0.159668,
            -0.179688,
            -0.199707,
            -0.219727,
            -0.229492,
            -0.239746,
            -0.239746,
            -0.249512,
            -0.249512,
            -0.249512,
            -0.249512,
            -0.239746,
            -0.239746,
            -0.229492,
            -0.219727,
            -0.209473,
            -0.199707,
            -0.179688,
            -0.169434,
            -0.149414,
            -0.139648,
            -0.119629,
            -0.109375,
            -0.0893555,
            -0.0795898,
            -0.0693359,
            -0.0595703,
            -0.0493164,
            -0.0395508,
            -0.0395508,
            -0.0292969,
            -0.0292969,
            -0.0292969,
            -0.0292969,
            -0.0395508,
            -0.0395508,
            -0.0493164,
            -0.0595703,
            -0.0693359,
            -0.0795898,
            -0.0893555,
            -0.109375,
            -0.119629,
            -0.139648,
            -0.149414,
            -0.159668,
            -0.179688,
            -0.189453,
            -0.209473,
            -0.219727,
            -0.229492,
            -0.229492,
            -0.239746,
            -0.239746,
            -0.249512,
            -0.239746,
            -0.239746,
            -0.239746,
            -0.229492,
            -0.219727,
            -0.209473,
            -0.189453,
            -0.169434,
            -0.159668,
            -0.129395,
            -0.119629,
            -0.0893555,
            -0.0693359,
            -0.0395508,
            -0.0195312,
            0.00976562,
            0.0297852,
            0.0498047,
            0.0800781,
            0.100098,
            0.120117,
            0.140137,
            0.160156,
            0.180176,
            0.200195,
            0.209961,
            0.220215,
            0.229980,
            0.240234,
            0.250,
            0.250,
            0.250,
            0.250,
            0.250,
            0.250,
            0.240234,
            0.229980,
            0.229980,
            0.220215,
            0.209961,
            0.200195,
            0.189941,
            0.189941,
            0.180176,
            0.180176,
            0.169922,
            0.169922,
            0.169922,
            0.169922,
            0.169922,
            0.180176,
            0.189941,
            0.200195,
            0.209961,
            0.229980,
            0.240234,
            0.270020,
            0.290039,
            0.310059,
            0.339844,
            0.359863,
            0.390137,
            0.419922,
            0.450195,
            0.479980,
            0.50,
            0.529785,
            0.549805,
            0.580078,
            0.600098,
            0.620117,
            0.640137,
            0.660156,
            0.669922,
            0.689941,
            0.700195,
            0.709961,
            0.709961,
            0.720215,
            0.720215,
            0.709961,
            0.709961,
            0.700195,
            0.700195,
            0.680176,
            0.669922,
            0.660156,
            0.640137,
            0.629883,
            0.620117,
            0.600098,
            0.580078,
            0.569824,
            0.549805,
            0.540039,
            0.529785,
            0.509766,
            0.50,
            0.50,
            0.490234,
            0.479980,
            0.479980,
            0.479980,
            0.490234,
            0.490234,
            0.50,
            0.50,
            0.509766,
            0.520020,
            0.540039,
            0.549805,
            0.569824,
            0.580078,
            0.589844,
            0.609863,
            0.620117,
            0.640137,
            0.649902,
            0.669922,
            0.680176,
            0.689941,
            0.700195,
            0.700195,
            0.709961,
            0.709961,
            0.709961,
            0.709961,
            0.700195,
            0.689941,
            0.680176,
            0.669922,
            0.649902,
            0.640137,
            0.620117,
            0.600098,
            0.580078,
            0.560059,
            0.529785,
            0.50,
            0.479980,
            0.459961,
            0.430176,
            0.399902,
            0.379883,
            0.359863,
            0.339844,
            0.319824,
            0.299805,
            0.279785,
            0.259766,
            0.250,
            0.240234,
            0.229980,
            0.220215,
            0.220215,
            0.220215,
            0.209961,
            0.220215,
            0.220215,
            0.220215,
            0.220215,
            0.229980,
            0.240234,
            0.250,
            0.250,
            0.259766,
            0.270020,
            0.270020,
            0.279785,
            0.290039,
            0.290039,
            0.290039,
            0.299805,
            0.290039,
            0.290039,
            0.279785,
            0.279785,
            0.270020,
            0.250,
            0.240234,
            0.220215,
            0.200195,
            0.180176,
            0.160156,
            0.140137,
            0.109863,
            0.0800781,
            0.0498047,
            0.0297852,
            0.0,
            -0.0195312,
            -0.0493164,
            -0.0795898,
            -0.0996094,
            -0.129395,
            -0.149414,
            -0.169434,
            -0.189453,
            -0.209473,
            -0.219727,
            -0.229492,
            -0.239746,
            -0.239746,
            -0.249512,
            -0.249512,
            -0.249512,
            -0.249512,
            -0.239746,
            -0.229492,
            -0.229492,
            -0.219727,
            -0.199707,
            -0.189453,
            -0.179688,
            -0.159668,
            -0.139648,
            -0.129395,
            -0.109375,
            -0.0996094,
            -0.0893555,
            -0.0693359,
            -0.0595703,
            -0.0493164,
            -0.0395508,
            -0.0395508,
            -0.0292969,
            -0.0292969,
            -0.0292969,
            -0.0292969,
            -0.0292969,
            -0.0395508,
            -0.0493164,
            -0.0595703,
            -0.0693359,
            -0.0795898,
            -0.0893555,
            -0.0996094,
            -0.119629,
            -0.129395,
            -0.149414,
            -0.159668,
            -0.169434,
            -0.189453,
            -0.199707,
            -0.209473,
            -0.219727,
            -0.229492,
            -0.239746,
            -0.239746,
            -0.249512,
            -0.249512,
            -0.239746,
            -0.239746,
            -0.229492,
            -0.219727,
            -0.209473,
            -0.189453,
            -0.179688,
            -0.159668,
            -0.139648,
            -0.119629,
            -0.0893555,
            -0.0693359,
            -0.0493164,
            -0.0195312,
            0.0,
            0.0297852,
            0.0498047,
            0.0800781,
            0.100098,
            0.120117,
            0.149902,
            0.160156,
            0.189941,
            0.200195,
            0.209961,
            0.229980,
            0.240234,
            0.250,
            0.250,
            0.250,
            0.250,
            0.250,
            0.250,
            0.250,
            0.240234,
            0.240234,
            0.229980,
            0.220215,
            0.209961,
            0.200195,
            0.200195,
            0.189941,
            0.180176,
            0.169922,
            0.169922,
            0.169922,
            0.169922,
            0.169922,
            0.169922,
            0.180176,
            0.189941,
            0.200195,
            0.209961,
            0.220215,
            0.240234,
            0.259766,
            0.279785,
            0.299805,
            0.330078,
            0.350098,
            0.379883,
            0.410156,
            0.439941,
            0.459961,
            0.490234,
            0.520020,
            0.549805,
            0.569824,
            0.589844,
            0.620117,
            0.629883,
            0.649902,
            0.669922,
            0.680176,
            0.689941,
            0.700195,
            0.709961,
            0.709961,
            0.720215,
            0.720215,
            0.709961,
            0.709961,
            0.700195,
            0.689941,
            0.680176,
            0.669922,
            0.660156,
            0.640137,
            0.629883,
            0.609863,
            0.600098,
            0.580078,
            0.569824,
            0.549805,
            0.540039,
            0.529785,
            0.520020,
            0.509766,
            0.50,
            0.50,
            0.490234,
            0.490234,
            0.490234,
            0.490234,
            0.50,
            0.509766,
            0.509766,
            0.520020,
            0.529785,
            0.549805,
            0.560059,
            0.580078,
            0.589844,
            0.609863,
            0.620117,
            0.640137,
            0.649902,
            0.660156,
            0.680176,
            0.689941,
            0.689941,
            0.700195,
            0.709961,
            0.709961,
            0.709961,
            0.709961,
            0.700195,
            0.689941,
            0.689941,
            0.669922,
            0.660156,
            0.640137,
            0.620117,
            0.600098,
            0.589844,
            0.560059,
            0.540039,
            0.509766,
            0.490234,
            0.459961,
            0.439941,
            0.410156,
            0.390137,
            0.359863,
            0.339844,
            0.319824,
            0.299805,
            0.279785,
            0.270020,
            0.250,
            0.240234,
            0.229980,
            0.220215,
            0.220215,
            0.209961,
            0.209961,
            0.209961,
            0.209961,
            0.220215,
            0.220215,
            0.229980,
            0.240234,
            0.240234,
            0.250,
            0.259766,
            0.270020,
            0.270020,
            0.279785,
            0.290039,
            0.290039,
            0.290039,
            0.299805,
            0.299805,
            0.290039,
            0.290039,
            0.279785,
            0.270020,
            0.259766,
            0.240234,
            0.229980,
            0.209961,
            0.189941,
            0.169922,
            0.140137,
            0.120117,
            0.0898438,
            0.0698242,
            0.0400391,
            0.00976562,
            -0.0195312,
            -0.0493164,
            -0.0693359,
            -0.0996094,
            -0.119629,
            -0.139648,
            -0.169434,
            -0.189453,
            -0.199707,
            -0.219727,
            -0.229492,
            -0.239746,
            -0.249512,
            -0.249512,
            -0.249512,
            -0.249512,
            -0.249512,
            -0.239746,
            -0.239746,
            -0.229492,
            -0.219727,
            -0.209473,
            -0.199707,
            -0.179688,
            -0.169434,
            -0.149414,
            -0.139648,
            -0.119629,
            -0.109375,
            -0.0893555,
            -0.0795898,
            -0.0693359,
            -0.0595703,
            -0.0493164,
            -0.0395508,
            -0.0395508,
            -0.0395508,
            -0.0292969,
            -0.0395508,
            -0.0395508,
            -0.0493164,
            -0.0493164,
            -0.0595703,
            -0.0693359,
            -0.0795898,
            -0.0893555,
            -0.0996094,
            -0.119629,
            -0.129395,
            -0.139648,
            -0.159668,
            -0.169434,
            -0.189453,
            -0.199707,
            -0.209473,
            -0.219727,
            -0.229492,
            -0.239746,
            -0.239746,
            -0.239746,
            -0.249512,
            -0.239746,
            -0.239746,
            -0.229492,
            -0.219727,
            -0.209473,
            -0.199707,
            -0.179688,
            -0.159668,
            -0.139648,
            -0.119629,
            -0.0996094,
            -0.0795898,
            -0.0493164,
            -0.0292969,
            -0.00927734,
            0.0200195,
            0.0400391,
            0.0698242,
            0.0898438,
            0.109863,
            0.140137,
            0.160156,
            0.169922,
            0.189941,
            0.209961,
            0.220215,
            0.229980,
            0.240234,
            0.250,
            0.250,
            0.250,
            0.250,
            0.250,
            0.250,
            0.240234,
            0.240234,
            0.229980,
            0.220215,
            0.220215,
            0.209961,
            0.200195,
            0.189941,
            0.180176,
            0.180176,
            0.169922,
            0.169922,
            0.169922,
            0.169922,
            0.169922,
            0.180176,
            0.180176,
            0.189941,
            0.200195,
            0.220215,
            0.229980,
            0.250,
            0.270020,
            0.290039,
            0.319824,
            0.339844,
            0.370117,
            0.399902,
            0.430176,
            0.450195,
            0.479980,
            0.50,
            0.529785,
            0.560059,
            0.580078,
            0.600098,
            0.629883,
            0.649902,
            0.660156,
            0.680176,
            0.689941,
            0.700195,
            0.709961,
            0.709961,
            0.720215,
            0.720215,
            0.709961,
            0.709961,
            0.700195,
            0.689941,
            0.680176,
            0.669922,
            0.660156,
            0.640137,
            0.629883,
            0.609863,
            0.600098,
            0.580078,
            0.569824,
            0.560059,
            0.540039,
            0.529785,
            0.509766,
            0.509766,
            0.50,
            0.490234,
            0.490234,
            0.479980,
            0.479980,
            0.490234,
            0.490234,
            0.490234,
            0.50,
            0.509766,
            0.520020,
            0.540039,
            0.549805,
            0.569824,
            0.580078,
            0.600098,
            0.620117,
            0.629883,
            0.640137,
            0.660156,
            0.669922,
            0.680176,
            0.689941,
            0.700195,
            0.700195,
            0.709961,
            0.709961,
            0.709961,
            0.700195,
            0.700195,
            0.689941,
            0.680176,
            0.660156,
            0.649902,
            0.629883,
            0.609863,
            0.589844,
            0.569824,
            0.540039,
            0.520020,
            0.490234,
            0.470215,
            0.450195,
            0.419922,
            0.390137,
            0.370117,
            0.350098,
            0.330078,
            0.310059,
            0.290039,
            0.270020,
            0.259766,
            0.250,
            0.240234,
            0.229980,
            0.220215,
            0.220215,
            0.209961,
            0.209961,
            0.209961,
            0.220215,
            0.220215,
            0.229980,
            0.229980,
            0.240234,
            0.250,
            0.259766,
            0.270020,
            0.270020,
            0.279785,
            0.279785,
            0.290039,
            0.290039,
            0.290039,
            0.290039,
            0.290039,
            0.290039,
            0.279785,
            0.270020,
            0.259766,
            0.240234,
            0.229980,
            0.209961,
            0.200195,
            0.169922,
            0.160156,
            0.120117,
            0.100098,
            0.0698242,
            0.0400391,
            0.0200195,
            -0.00927734,
            -0.0395508,
            -0.0595703,
            -0.0893555,
            -0.119629,
            -0.139648,
            -0.159668,
            -0.179688,
            -0.199707,
            -0.209473,
            -0.219727,
            -0.239746,
            -0.239746,
            -0.249512,
            -0.249512,
            -0.249512,
            -0.249512,
            -0.249512,
            -0.239746,
            -0.229492,
            -0.219727,
            -0.209473,
            -0.199707,
            -0.179688,
            -0.169434,
            -0.159668,
            -0.139648,
            -0.119629,
            -0.109375,
            -0.0996094,
            -0.0795898,
            -0.0693359,
            -0.0595703,
            -0.0493164,
            -0.0395508,
            -0.0395508,
            -0.0395508,
            -0.0395508,
            -0.0395508,
            -0.0395508,
            -0.0493164,
            -0.0493164,
            -0.0595703,
            -0.0595703,
            -0.0693359,
            -0.0795898,
            -0.0996094,
            -0.109375,
            -0.119629,
            -0.129395,
            -0.149414,
            -0.159668,
            -0.169434,
            -0.189453,
            -0.199707,
            -0.209473,
            -0.229492,
            -0.229492,
            -0.239746,
            -0.239746,
            -0.249512,
            -0.239746,
            -0.239746,
            -0.239746,
            -0.229492,
            -0.219727,
            -0.199707,
            -0.189453,
            -0.169434,
            -0.149414,
            -0.129395,
            -0.109375,
            -0.0893555,
            -0.0595703,
            -0.0395508,
            -0.0195312,
            0.00976562,
            0.0400391,
            0.0600586,
            0.0800781,
            0.109863,
            0.129883,
            0.149902,
            0.160156,
            0.189941,
            0.200195,
            0.220215,
            0.229980,
            0.240234,
            0.240234,
            0.250,
            0.250,
            0.250,
            0.250,
            0.250,
            0.240234,
            0.240234,
            0.229980,
            0.220215,
            0.220215,
            0.209961,
            0.200195,
            0.189941,
            0.180176,
            0.180176,
            0.169922,
            0.169922,
            0.160156,
            0.169922,
            0.169922,
            0.180176,
            0.180176,
            0.189941,
            0.209961,
            0.220215,
            0.240234,
            0.250,
            0.279785,
            0.299805,
            0.319824,
            0.350098,
            0.370117,
            0.399902,
            0.430176,
            0.450195,
            0.479980,
            0.509766,
            0.529785,
            0.560059,
            0.580078,
            0.609863,
            0.629883,
            0.649902,
            0.669922,
            0.680176,
            0.689941,
            0.700195,
            0.709961,
            0.709961,
            0.720215,
            0.709961,
            0.709961,
            0.709961,
            0.709961,
            0.689941,
            0.680176,
            0.669922,
            0.660156,
            0.640137,
            0.629883,
            0.609863,
            0.600098,
            0.580078,
            0.569824,
            0.560059,
            0.540039,
            0.529785,
            0.520020,
            0.509766,
            0.50,
            0.490234,
            0.490234,
            0.490234,
            0.490234,
            0.490234,
            0.490234,
            0.50,
            0.50,
            0.520020,
            0.520020,
            0.540039,
            0.549805,
            0.569824,
            0.589844,
            0.600098,
            0.609863,
            0.629883,
            0.640137,
            0.649902,
            0.669922,
            0.680176,
            0.689941,
            0.700195,
            0.700195,
            0.700195,
            0.709961,
            0.709961,
            0.700195,
            0.700195,
            0.689941,
            0.680176,
            0.669922,
            0.649902,
            0.640137,
            0.620117,
            0.600098,
            0.580078,
            0.549805,
            0.529785,
            0.509766,
            0.479980,
            0.459961,
            0.430176,
            0.410156,
            0.379883,
            0.359863,
            0.339844,
            0.319824,
            0.299805,
            0.279785,
            0.259766,
            0.250,
            0.240234,
            0.229980,
            0.220215,
            0.220215,
            0.209961,
            0.209961,
            0.209961,
            0.220215,
            0.220215,
            0.229980,
            0.229980,
            0.240234,
            0.250,
            0.259766,
            0.259766,
            0.270020,
            0.279785,
            0.290039,
            0.290039,
            0.290039,
            0.299805,
            0.290039,
            0.290039,
            0.290039,
            0.279785,
            0.270020,
            0.259766,
            0.250,
            0.229980,
            0.209961,
            0.189941,
            0.169922,
            0.160156,
            0.120117,
            0.100098,
            0.0698242,
            0.0400391,
            0.00976562,
            -0.0195312,
            -0.0395508,
            -0.0693359,
            -0.0996094,
            -0.119629,
            -0.139648,
            -0.159668,
            -0.189453,
            -0.199707,
            -0.219727,
            -0.229492,
            -0.239746,
            -0.239746,
            -0.249512,
            -0.249512,
            -0.249512,
            -0.249512,
            -0.239746,
            -0.239746,
            -0.229492,
            -0.219727,
            -0.209473,
            -0.189453,
            -0.179688,
            -0.159668,
            -0.149414,
            -0.129395,
            -0.119629,
            -0.0996094,
            -0.0893555,
            -0.0795898,
            -0.0693359,
            -0.0493164,
            -0.0493164,
            -0.0395508,
            -0.0395508,
            -0.0292969,
            -0.0292969,
            -0.0292969,
            -0.0292969,
            -0.0395508,
            -0.0395508,
            -0.0493164,
            -0.0595703,
            -0.0693359,
            -0.0795898,
            -0.0996094,
            -0.109375,
            -0.119629,
            -0.139648,
            -0.149414,
            -0.169434,
            -0.179688,
            -0.189453,
            -0.199707,
            -0.219727,
            -0.229492,
            -0.229492,
            -0.239746,
            -0.239746,
            -0.239746,
            -0.239746,
            -0.239746,
            -0.229492,
            -0.229492,
            -0.219727,
            -0.199707,
            -0.189453,
            -0.169434,
            -0.149414,
            -0.129395,
            -0.109375,
            -0.0893555,
            -0.0693359,
            -0.0395508,
            -0.0195312,
            0.00976562,
            0.0297852,
            0.0498047,
            0.0800781,
            0.100098,
            0.120117,
            0.149902,
            0.160156,
            0.180176,
            0.200195,
            0.209961,
            0.229980,
            0.229980,
            0.240234,
            0.250,
            0.250,
            0.250,
            0.250,
            0.250,
            0.240234,
            0.240234,
            0.229980,
            0.229980,
            0.220215,
            0.209961,
            0.200195,
            0.189941,
            0.189941,
            0.180176,
            0.169922,
            0.169922,
            0.169922,
            0.169922,
            0.169922,
            0.169922,
            0.180176,
            0.189941,
            0.200195,
            0.220215,
            0.229980,
            0.250,
            0.270020,
            0.290039,
            0.310059,
            0.339844,
            0.370117,
            0.390137,
            0.419922,
            0.450195,
            0.479980,
            0.50,
            0.529785,
            0.560059,
            0.580078,
            0.609863,
            0.620117,
            0.640137,
            0.660156,
            0.680176,
            0.689941,
            0.700195,
            0.709961,
            0.709961,
            0.709961,
            0.709961,
            0.709961,
            0.709961,
            0.700195
         ]
      }
   ],
   "Timestamp" : "2020-11-25 22:39:02.318",
   "TriggerMode" : 2,
   "TriggerSource" : 0,
   "TriggerType" : 0,
   "fDivX" : 8.00610e-05
}
